ID,Manual Anootation,Locus,Type,Gene,Inference,Product,Protein_id
NZ_CP009759 mapping_1142638,"orange, peaks at passage 3 and 4",BZ20_RS05650,"SNV, nonsense","/gene=""fepE""","""COORDINATES: similar to AA sequence:RefSeq:YP_002348013.1""","""LPS O-antigen length regulator""","""WP_011191890.1"""
NZ_CP009759 mapping_2576795,"grey, peaks at passage 6",BZ20_RS12115,"SNV, missense","/gene=""pitA""","""COORDINATES: similar to AA sequence:RefSeq:YP_002348838.1""","""inorganic phosphate transporter PitA""","""WP_011193267.1"""
NZ_CP009759 mapping_929855,"yellow, peaks at passages 6-10 and 12",BZ20_RS04615,1 bp insertion,"/gene=""galE""","""COORDINATES: similar to AA sequence:RefSeq:YP_002346179.1""","""UDP-glucose 4-epimerase GalE""","""WP_002230680.1"""
NZ_CP009759 mapping_3963825,"blue, follows green peaks above (7-10, 12)",BZ20_RS18425,9 bp insertion,,"""COORDINATES: similar to AA sequence:RefSeq:YP_002347886.1""","""DUF2127 domain-containing protein""","""WP_002211599.1"""
