Passage,Chlor,Cipro,Doxy,Gent,Imipenem
1,0,0,0,0,0
2,0,1,0,1,0
3,0,0,0,0,0
4,0,1,1,0,0
5,0,1,-2.321928095,0,0
6,1,2,2,1,0
7,1,2,2,1,0
8,0,2,2,-1,0
9,1,2,2,0,0
10,2,2,2,0,0
11,1,3,3,0,0
12,2,2,2,1,0
13,1,2,3,0,0
14,2,2,4,0,0
15,2,2,4,0,0
16,2,2,3,0,1
17,2,2,4,0,1
18,2,2,4,0,1
19,2,2,4,0,0
20,2,3,5,0,1